n , nc , nt , ntMax , courriels non traités , temps attente téléphone , taux utilisation téléconseillers , taux utilisations postes téléphonique , temps traitement courriels
4,2,2,2,95.45,233.23675220455218,99.53104071805645,91.44164190861538,102.71103682745314
6,3,3,3,25.53,139.58073072715464,98.50791629260434,86.34506016051346,77.4188035226055
8,4,4,4,0.84,90.14154602686834,89.81307271866547,82.96395310070116,43.85781112885179
10,5,5,5,0.79,53.171850666776116,79.67105011322094,82.34578822360308,23.07239552171589
12,6,6,6,0.99,21.91031141565569,73.33983518152235,82.02383482073434,14.854944755890934
14,7,7,7,1.0,3.53234495897071,64.2623258612513,75.61797241015385,6.986572225980815
16,8,8,8,1.05,0.3061941449392802,57.32342359425837,67.14104270321144,5.9154880398074985
18,9,9,9,1.04,0.16145669334954488,50.73711879822703,58.5021607162837,4.774968988231303
20,10,10,10,0.89,0.10115012460423786,46.13844818409094,53.734932415050636,4.053027555647632
30,15,15,15,0.79,0.03255586505524048,30.783741163427784,36.05071096117897,3.0590979895879093
